{
    "name": "MatiasGil.RxUtils",
    "references": [
        "GUID:560b04d1a97f54a4e82edc0cbbb69285"
    ],
    "includePlatforms": [],
    "excludePlatforms": [],
    "allowUnsafeCode": false,
    "overrideReferences": false,
    "precompiledReferences": [],
    "autoReferenced": true,
    "defineConstraints": [],
    "versionDefines": [],
    "noEngineReferences": false
}